<svg xmlns="http://www.w3.org/2000/svg" width="36.607" height="43.46" viewBox="0 0 36.607 43.46">
  <path id="Path_33" data-name="Path 33" d="M52.61,37.867a23.628,23.628,0,0,1-2.337,4.2,21.344,21.344,0,0,1-3.01,3.638,5.839,5.839,0,0,1-3.868,1.7,9.7,9.7,0,0,1-3.573-.853,10.253,10.253,0,0,0-3.847-.85,10.6,10.6,0,0,0-3.956.85,10.644,10.644,0,0,1-3.418.9,5.5,5.5,0,0,1-3.956-1.749A22.413,22.413,0,0,1,21.5,41.94a26.049,26.049,0,0,1-3.329-6.613,24.213,24.213,0,0,1-1.4-7.881,14.392,14.392,0,0,1,1.89-7.53,11.087,11.087,0,0,1,3.958-4,10.648,10.648,0,0,1,5.351-1.51,12.6,12.6,0,0,1,4.139.963,13.306,13.306,0,0,0,3.283.965,19.645,19.645,0,0,0,3.64-1.137,12.033,12.033,0,0,1,4.948-.879,10.506,10.506,0,0,1,8.23,4.333,9.155,9.155,0,0,0-4.856,8.317,9.175,9.175,0,0,0,3.013,6.913,9.9,9.9,0,0,0,3.01,1.974q-.362,1.05-.767,2.015Zm-8.386-33a9.271,9.271,0,0,1-2.377,6.081c-1.91,2.233-4.22,3.523-6.726,3.32a6.766,6.766,0,0,1-.05-.824A9.526,9.526,0,0,1,37.593,7.3a9.708,9.708,0,0,1,3.072-2.306,9.158,9.158,0,0,1,3.514-1,7.894,7.894,0,0,1,.046.869Z" transform="translate(-16.77 -3.999)" fill="#fff"/>
</svg>
