<svg xmlns="http://www.w3.org/2000/svg" width="24.684" height="22.403" viewBox="0 0 24.684 22.403">
  <g id="Group_11" data-name="Group 11" transform="translate(-1235 -46.838)">
    <g id="Group_5" data-name="Group 5" transform="translate(1235 25.607)">
      <g id="Group_4" data-name="Group 4" transform="translate(0 21.231)">
        <path id="Path_3" data-name="Path 3" d="M.913,23.057H3.531L7.26,36.542a.913.913,0,0,0,.883.67H19.6a.915.915,0,0,0,.837-.548l4.17-9.588a.924.924,0,0,0-.076-.867.907.907,0,0,0-.761-.411H11.11a.913.913,0,1,0,0,1.826H22.372l-3.379,7.762H8.827L5.1,21.9a.913.913,0,0,0-.883-.67H.913a.913.913,0,1,0,0,1.826Z" transform="translate(0 -21.231)" fill="#1998ff"/>
        <path id="Path_4" data-name="Path 4" d="M98.97,365.372a2.07,2.07,0,1,0-2.07-2.07A2.072,2.072,0,0,0,98.97,365.372Z" transform="translate(-91.695 -342.969)" fill="#1998ff"/>
        <path id="Path_5" data-name="Path 5" d="M339.988,365.289h.152a2.141,2.141,0,1,0-.152,0Z" transform="translate(-319.777 -342.886)" fill="#1998ff"/>
      </g>
    </g>
  </g>
</svg>
