<svg xmlns="http://www.w3.org/2000/svg" width="65.911" height="30.383" viewBox="0 0 65.911 30.383">
  <path id="path2894" d="M335.356,386.62s.138.608.479.379.479-.572.819-.572,1.761-.267,2.1,0,.375.038.545.038a6.587,6.587,0,0,1,.671.089c.436-.045.347-.738.032-.94-.454-.356-1.066-.584-1.52-.941l-.136-1.03.375-.534v-1.716l-.2-.458-.068-1.3-.17-.229v-.5c.114-.165.344-.33.457-.5.034-.318-.118-.542-.084-.86-.08-.407-.089-.907-.169-1.314v-1.487c.33-.1.409-.244.433-.392a3.148,3.148,0,0,0-.16-.866c-.045-2.377-.067-4.847-.113-7.224.181-.284.4-.431.4-.641,0-.164-.172-.3-.392-.485v-.5s.375-.763.681-.763a.486.486,0,0,0,.511-.457.38.38,0,0,0-.307-.61c-.649-.013-1.384.02-2.017.006-.558-.012-1.017-.071-1.56-.083l-.715.038c-.586.178-.463.5-.238.674a1.647,1.647,0,0,0,.818.375.777.777,0,0,1,.818.515q.051,2.288.1,4.576c.011,1.125.046,2.25.057,3.375s0,2.25.011,3.375q.034,1.983.068,3.966a1.938,1.938,0,0,1-.17.61,4.3,4.3,0,0,0-.068,1.106c.377.329.3.283.034.725q-.034,1.468-.068,2.936l-.273.534S335.356,386.124,335.356,386.62Zm-16.5,4.74c-.505-.1-.6-.348-.42-.492.108-.086.4-.083.525-.144a1.445,1.445,0,0,0,.5-.347c.195-.241.077-.8.309-1.255a21.345,21.345,0,0,0,.067-5.318c-.134-1.318,0-5.7,0-6.252a1.065,1.065,0,0,0,.205-.756c0-.183.123-.467-.008-.693-.19-.217-.132-1.064-.147-1.542a2.781,2.781,0,0,1,.228-1.349,1.147,1.147,0,0,0,0-.763c-.161-.376-.394.058-.379-.7.038-1.83.106-3.672.058-5.5.01-.163.282-.193.335-.347a.854.854,0,0,0,0-.624c-.051-.105-.336.032-.42-.048-.511-.488-1.154-.8-1.45-1.447a.918.918,0,0,1,.314-.933c.4-.2,1.153.007,1.594-.069.237-.041.387-.182.628-.193a40.137,40.137,0,0,1,5.672-.085c.3.03.4.557.67.688.374.179.92.141,1.206.447a2.492,2.492,0,0,1,.847,1.576c.071.835.215,1.781.208,2.422a3.266,3.266,0,0,1-.407,1.484,18.6,18.6,0,0,1-1.141,1.85c-.244.361-.678.7-.78,1.106s.992.113,1.217.485-.184.777-.064,1.18c.108.359.73.395.8.763.191.951-.23,1.957-.067,2.914.052.306.538.317.585.624.057.664.037,1.366.042,2.072.005.751.035,1.5.025,2.218-.018.269-.371.426-.4.694-.084.712.161,1.516,0,2.214-.166.735-.757,1.255-.987,1.971-.2.62-.143,1.526-.465,1.915a6.179,6.179,0,0,0-1.617.855c-.614.457-1.006.98-1.195,1-.24.213-.747.071-1.044.182-.274.1-.3.332-.589.294-.228-.029-.157-.219-.335-.369a.331.331,0,0,0-.4,0c-.6.484-.153.357-.836.294a25.8,25.8,0,0,1-2.889-.023Zm3.887-2.785.469-.9q-.067-1.491-.134-2.983l.4-.555v-3c0-.455-.063-.911-.063-1.366-.47-.389-.245-.383.134-.832,0-.439.106-.794.106-1.233l-.134-1.11.2-.555c0-.556.063-1.007.063-1.563,0-.522.015-.7.111-.665a5.324,5.324,0,0,1,.593.582l.733.7c.451.434.891.473.708,1.184-.171.665.32.849.168,1.509a4.012,4.012,0,0,0-.236,1.124,1.109,1.109,0,0,0,.311.61c.188.216.25.2.138.468a3.411,3.411,0,0,0-.34.9c-.022.318.151.464.3,1.025a2.133,2.133,0,0,1,0,1.224l-.408,1.638c-.015.413-.053.827-.082,1.24-.044.63-.128.646-.566,1.1-.4.409-.91.759-1.294,1.125-.424.162-.755.177-1.179.339Zm1.025-17.528a2.047,2.047,0,0,0,.6,0c.105-.044.164-.164.318-.462.2-.386.493-.868.737-.9a5.455,5.455,0,0,0,.625-.122s.215-.041.142-.571-.225-1.04-.092-1.183a.667.667,0,0,0,.02-.714c-.142-.163-.277-.326-.048-.55s.388-.6-.161-.538-.542-.176-.605-.339-.662-.126-.975-.144c-.313.061-.575.041-.566.367s-.043,1.9-.039,2.062.046,3.1.046,3.1Zm17.352,14.312c-.024.139-.343.139-.318.278.034.194.047.5.242.522.567.073,1.344-.152,1.905-.048.222.041.234.419.438.517.167,0,.424,0,.636,0,.163-.085.119-.384.278-.477a.835.835,0,0,1,.676-.08c.115.042-.042.344.08.358.991-.038,1.877.071,2.815,0,.187-.031,0-.3.15-.41.174-.127.607.094.636-.119.152-1.1-.085-2.338.018-3.448.033-.355.374-.566.45-.915.025-.116.165-.118.176-.233a3.914,3.914,0,0,0-.069-1.274.839.839,0,0,0-.676-.124c-.151.111-.014.506-.115.663-.05.078-.229-.078-.278,0s.014.2.037.3c.013.06.012.11-.037.135-.261.13-.645-.179-.875,0s.028.516-.163.729c-.31.345-.973.547-1.282.894-.367.412-.334.832-.756,1.187a4.765,4.765,0,0,1-1.291.47c-.464.188-.685.536-1.166.671-.145.041-.323-.213-.278-.358.361-1.169.829-2.345,1.219-3.505.25-.744.367-1.214.637-1.951a11.582,11.582,0,0,1,1.1-2.379c.09-.133.39-.046.438-.2.119-.379-.1-.809,0-1.193a1.465,1.465,0,0,1,.624-.716c.167-.107.434.042.508-.142.172-.431.011-.887.12-1.339a4.118,4.118,0,0,1,.415-.773c.176-.376.163-.7.358-1.069a7.123,7.123,0,0,0,.588-1.04,4.739,4.739,0,0,0,.067-1.125c.011-.124.194-.193.2-.318.062-1.5.141-3,.053-4.494-.007-.122-.281-.117-.278-.239.009-.457.065-.861.04-1.273,0-.08.023-.146-.057-.15-1.245-.052-2.475-.024-3.721-.009-1.021.012-2.044-.07-3.063,0a.556.556,0,0,0-.4.15.775.775,0,0,0-.146.487c.027.665-.013,1.388,0,2.188,0,.148.294.059.345.2a2.984,2.984,0,0,1,.119,1.233c-.01.132-.171.31-.168.443.064.46.124.785.208,1.228.048.171.2.3.239.477.051.206-.137.623.075.636a1.3,1.3,0,0,0,.442,0c.162-.059-.06-.355,0-.517.042-.115.259-.118.278-.239.105-.655-.078-1.422.026-2.078a.761.761,0,0,1,.318-.517c.146-.091.411.136.517,0,.147-.189,0-.406.093-.627a2.305,2.305,0,0,1,.6-.835,1.527,1.527,0,0,1,.782-.491c.7-.073,1.534-.007,2.479-.048.089,0,.113.132.119.221a3.923,3.923,0,0,1,0,1.313,5.1,5.1,0,0,1-.91,1.3,9.025,9.025,0,0,0-.716.844c-.238.351.118.831,0,1.237a4.257,4.257,0,0,1-.729,1.2c-.217.283-.535.427-.738.72a5.114,5.114,0,0,0-.561,1.14,5.4,5.4,0,0,0-.278,1.074c-.047.288.091.614-.04.875-.1.191-.311.156-.45.318a2.3,2.3,0,0,0-.4.8,3.96,3.96,0,0,1-.288.839c-.191.345-.573.677-.747,1.031a5.746,5.746,0,0,0-.305,1.273c-.091.4-.168.786-.252,1.193a6.861,6.861,0,0,0-.2,1.511c0,.155.167.261.239.4.061.115.2.234.159.358-.056.169-.373.181-.4.358a.528.528,0,0,0,.154.477c.116.11.354.062.438.2a.575.575,0,0,1,0,.517c-.061.13-.277.1-.3.239-.114.572.026.98-.075,1.554ZM375.607,391c-.075-.237.112-.283.236-.407a1.281,1.281,0,0,0,.428-.714,5.426,5.426,0,0,0,.2-.57,1.687,1.687,0,0,0-.111-.849c-.113-.267-.3-.407-.231-.662.024-.163.393-.183.683-.312a.653.653,0,0,0,.332-.324c.064-.164-.148-.136-.256-.344s-.132-.553-.22-.718a2.737,2.737,0,0,1-.447-1c-.028-.871.225-1.751.257-2.589a10.362,10.362,0,0,0,.14-1.591,2.474,2.474,0,0,0-.418-.986,5.21,5.21,0,0,1-.464-.89,15.262,15.262,0,0,1-.088-1.636c-.017-.1-.274-.228-.284-.331-.066-.717.015-1.452-.032-2.162-.024-.134-.132-.159-.145-.294-.038-.4,0-.785,0-1.129,0-.3-.043-.563-.043-.915,0-.131-.109-.222-.113-.353-.026-.776.006-1.633,0-2.41-.011-.827-.062-1.575,0-2.4.011-.139.292-.136.287-.275-.026-.631-.081-.882-.066-1.517,0-.073.152-.244.158-.317a4.254,4.254,0,0,0-.025-1.509c-.1-.327-.343-.43-.625-.641-.249-.187-.526-.49-.757-.66a2.716,2.716,0,0,1-.714-.719c-.134-.2.087-.213.335-.221a5.444,5.444,0,0,1,.966.066c.1.016.295.192.391.23.233.09.385-.027.624.047a12.265,12.265,0,0,1,1.147.571c.28.161.37.4.662.532.053.025.954.283,1.059.309.244.061.4-.118.64-.057.284.071.788.214,1.106.309.179.054.293.266.476.3.891.178.731-.119,1.437.586.208.208.551.375.706.624a5.9,5.9,0,0,1,.381,1.168,5.612,5.612,0,0,1,.407.861c.154.854-.007,1.742.1,2.6.032.263.3.541.331.8a13.161,13.161,0,0,1,0,3.013c-.041.34-.327.478-.378.816-.085.567.084,1.148.044,1.721a1.884,1.884,0,0,1-.315.794c-.105.17-.345.232-.422.416a8.407,8.407,0,0,0-.246,1.671c-.029,1-.009,1.778.034,2.779a11.525,11.525,0,0,1,.013,2.039c-.032.242-.235.376-.271.618-.1.669-.014,1.356-.079,2.03-.011.115-.181.247-.2.36a8.033,8.033,0,0,1-.356,2.206,2.725,2.725,0,0,1-1.018,1.182,4.1,4.1,0,0,1-1.289.429,4.007,4.007,0,0,0-.882.176c-.16.083-.053.084-.2.188a.279.279,0,0,1-.309,0c-.112-.092-.077-.13-.208-.192a.84.84,0,0,0-.662,0c-.146.063-.093.177-.249.207a4.88,4.88,0,0,1-1.026.132c-.2-.005-.365.087-.423-.1Zm2.961-22.657a1.268,1.268,0,0,1,.924.164,1.629,1.629,0,0,1,.742.758l.385.372a4.384,4.384,0,0,1,.985,1.889,5.966,5.966,0,0,1-.171,2.658,2.173,2.173,0,0,0-.283.862c-.086.781-.307.659-.533,1.251a2.469,2.469,0,0,0-.053.741q-.03,2.039-.06,4.079a4.542,4.542,0,0,1-.527,2.085,1.978,1.978,0,0,0-.314,1.066,2.569,2.569,0,0,1-.31,1.223l-.375.859c-.148.339-.284.461-.382.415s-.159-.258-.158-.587q.013-2.49.026-4.979l.057-5.294a.885.885,0,0,0-.257-.744,4.174,4.174,0,0,0-.314-1.373,2.306,2.306,0,0,1-.208-1.232q-.021-1.84-.043-3.679c-.009-.753.162-.5.868-.533Zm-28.922,21.1a5.611,5.611,0,0,1-.005-1.7c.017-.12.258-.008.324-.109a.63.63,0,0,0,.122-.527c-.039-.1-.107.038-.165-.053a.419.419,0,0,1,.04-.445c.135-.171.4-.127.5-.324.126-.269-.09-.608,0-.891.029-.09.261.092.284,0,.1-.433-.026-.9.04-1.337.017-.115.119-.168.132-.284a5.032,5.032,0,0,0,0-1.458c-.053-.3-.293-.511-.335-.81a12.976,12.976,0,0,1-.056-3.352,14.932,14.932,0,0,1,.962-2.937c.2-.494.294-.34.472-.841a.773.773,0,0,0,.04-.486c-.064-.192-.291-.339-.259-.539.039-.245.34-.239.421-.474.109-.319-.111-.694,0-1.013.13-.375.579-.591.689-.972.105-.364-.008-.946.1-1.311a8.679,8.679,0,0,1,.8-1.849,12.292,12.292,0,0,0,.724-1.134,7.245,7.245,0,0,0,.208-1.256c-.253-.316-.834.125-1.215-.012-.193-.07-.193-.386-.384-.461a1.6,1.6,0,0,0-1.094.182c-.392.294-.395.638-.548,1.1-.229.694-.054,1.474-.34,2.147-.113.266-.573.341-.794.527-.117.1-.171.2-.324.2a.3.3,0,0,1-.324-.2,4.651,4.651,0,0,1,0-.932c-.012-.244-.143-.493-.081-.729.032-.123.314-.076.324-.2.121-1.392-.045-2.775-.024-4.1.007-.467.131-.4.591-.4.774-.008,2,0,2.892-.006,1.562-.008,3.127-.066,4.684-.023.232.017.534.1.55.335a2.734,2.734,0,0,1-.5,1.337c-.115.22-.372.364-.456.6-.144.4.012.864-.139,1.256-.093.241-.565.285-.655.527-.128.342.093.754-.041,1.094-.066.169-.426.072-.486.243-.2.578-.084,1.231-.243,1.823-.088.327-.336.556-.38.891-.122.91.079,1.84,0,2.755-.017.2-.227.336-.284.527-.133.449-.218.935-.372,1.377-.066.191-.313.29-.365.486-.076.287.115.617,0,.891-.144.345-.652.485-.729.851-.219,1.031.128,2.118-.033,3.16-.072.466-.483.832-.567,1.3-.109.6.079,1.3-.071,1.893a16.17,16.17,0,0,1-.763,1.61c-.048.538-.693,1.032-.342,1.439a3.225,3.225,0,0,0,1.62-.081c.227-.1-.036-.578.162-.729a11.676,11.676,0,0,1,1.978-.972,8.1,8.1,0,0,0,1.223-.648c.176-.134.2-.453.4-.527.126-.045.152.261.284.284.453.077.845-.117,1.289,0,.178.047.172.285.218.463.041.159.113.331.025.468-.053.083-.246-.009-.284.081a1.015,1.015,0,0,0,0,.607c.037.153.177.248.19.405a12.606,12.606,0,0,1,0,2.471c-.019.172-.117.352-.289.37-1.169-.054-2.249.032-3.419.036-.12-.011-.051-.224-.162-.271a2.271,2.271,0,0,0-1.166-.074c-.372.085-.4.392-.778.466-.675.135-1.456,0-2.137.106-.241.036-.424.24-.661.3-.328.082-.844.169-1.013-.123Zm-18.045,1.9a5.363,5.363,0,0,1-1.63.012c-.165,0-.434.133-.592.086s-.446-.394-.338-.538c.423-.564,1.256-.634,1.642-1.223.227-.346.014-.813.112-1.215.03-.124.246-.112.311-.222a.291.291,0,0,0,0-.31c-.154-.18-.251.2-.312-.341a7.106,7.106,0,0,1-.021-1.45c.028-.306.251-.241.293-.4.078-.3-.085-.523,0-.823.036-.135.286-.1.355-.222a.407.407,0,0,0,0-.4c-.151-.227-.562-.223-.608-.492a8.264,8.264,0,0,1-.03-1.515c.009-.522-.027-1.046.017-1.577.008-.1.231-.094.266-.187a1.221,1.221,0,0,0,0-.577c-.02-.153.027-.466.015-.62-.018-.236-.12-.324-.01-.534.077-.146.326-.058.349-.222.121-.864-.138-1.75-.044-2.618.016-.147.247-.124.286-.266a1.05,1.05,0,0,0-.02-.71c-.048-.1-.275-.1-.284-.214-.1-1.268.074-2.466-.027-3.734-.009-.119-.3.048-.306-.467-.006-.54-.056-1.043-.048-1.44.006-.3.663-.313.656-.617a7.473,7.473,0,0,0-.044-1.464c-.034-.153-.234-.128-.3-.27a.485.485,0,0,1,.054-.4c.069-.164.257-.268.3-.44a2.087,2.087,0,0,0,0-.976c-.024-.1-.2-.205-.253-.3-.092-.174-.051-.328-.174-.482-.085-.106-.336-.041-.44-.129-.266-.228-.42-.48-.643-.688a2.768,2.768,0,0,1-.655-.628.573.573,0,0,1,.185-.631.462.462,0,0,1,.475,0c.117.062.114.31.245.328.572.08,1.139-.172,1.7-.048.246.054.259.365.488.469.153.07.43-.065.569.029a4.364,4.364,0,0,1,.54.6c.207.211.386.305.492.6a3.229,3.229,0,0,1,.069,1.158c-.005.347.051.7.019,1.05-.011.118-.238.063-.27.177a.807.807,0,0,0,.089.608c.076.132.282.065.332.208a2.01,2.01,0,0,1,.044,1.092c-.032.128-.28.046-.287.177a31.252,31.252,0,0,0,.044,5.013c.029.283.475.383.505.666a32.364,32.364,0,0,1-.05,4.747,1.759,1.759,0,0,1-.212.675,1.075,1.075,0,0,0-.035.582,6.466,6.466,0,0,0,.014.828c.023.155.339.3.328.459a6.661,6.661,0,0,0,.058,1.06c.013.2-.36.333-.478.5a.545.545,0,0,0-.068.484c.065.123.183.06.22.195a.643.643,0,0,1-.039.523c-.062.111-.289.1-.311.222-.06.351.139.712.089,1.065-.015.105-.25.072-.266.177-.079.526.089,1.072,0,1.6-.034.2-.341.287-.355.488-.008.112.258.034.311.133.084.157-.126.483.044.532a3.637,3.637,0,0,0,1.842-.027c.324-.085.461-.539.795-.571.4-.038.7.227,1.1.3a3.76,3.76,0,0,0,1.611-.027c.3-.082.479-.4.791-.445a30.027,30.027,0,0,1,3.96-.077c1.286-.007,2.932-.072,3.887.032.545.018-.046,1.945.15,2.963.043.222.232.346.346.551.181.327.252.493-.219.491-.886,0-1.783.064-2.744.023-.189-.008-.18-.372-.355-.444-.192-.079-.419.093-.621.045-.3-.073-.643-.362-.951-.4-.822-.1-1.651.107-2.471-.006-.186-.026-.212-.386-.4-.4-1.917-.14-3.754.061-5.674-.043-.411-.023-.449-.166-.71-.242a2.393,2.393,0,0,0-1.377.014c-.648.3-.646.877-1.321,1.114Zm23.08-7.5c-.4-.012-.427-.655-.4-1.05s.56-.382.748-.741c.137-.261-.068-.72.088-.97.168-.269.624-.259.793-.529.1-.154-.047-.449-.043-.63.011-.43.107-.746.087-1.175a4.613,4.613,0,0,1-.061-.846c.058-.3.237-.227.325-.519.11-.366-.073-.782.044-1.145.047-.144.423-.072.4-.22-.033-.181-.362-.083-.4-.264a4.1,4.1,0,0,1,.043-1.737c.093-.337.475-.6.573-.932.1-.352-.113-.752,0-1.1.077-.237.468-.287.528-.528.142-.57.015-1.269.163-1.837A1.913,1.913,0,0,1,358,368.8a.821.821,0,0,0,.271-.371c.073-.242-.107-.446-.066-.7.037-.221.205-.363.312-.559.135-.248.192-.562.322-.813a8.4,8.4,0,0,0,.581-1.063c.1-.291-.117-.765.013-1.044.184-.4.66-.386.841-.783.147-.321-.11-.74.044-1.057a.686.686,0,0,1,.62-.343.523.523,0,0,1,.48.3c.126.346.012.762.155,1.1.25.6.684.949.924,1.55.125.313-.01.764.066,1.093.1.447.177.9.325,1.333.183.542.446,1.068.6,1.618.136.487.169,1.016.274,1.512a8.047,8.047,0,0,0,.342,1.042c.053.149.234.111.277.264.075.27-.151.564-.088.837.075.326.427.657.484.987a10.412,10.412,0,0,1,.009,1.59,12.565,12.565,0,0,0,.13,1.433c.04.293.2.71.21.923.027.793.062,1.573.071,2.366.013,1.16.013,2.4-.045,3.557-.007.135-.168.2-.215.331a8.675,8.675,0,0,0-.445,1.245,4,4,0,0,1-.176.793c-.069.151-.38.274-.432.432a4.781,4.781,0,0,0,0,1.141,2.478,2.478,0,0,1-.335.943,6.887,6.887,0,0,0-.348.862c-.072.271.058.568-.022.837-.042.141-.234.208-.264.352-.076.359.066.751-.044,1.1-.062.2-.105.169-.294.255-.134.06-.487.128-.507-.018-.085-.613.087-1.039-.01-1.65a18.664,18.664,0,0,0-.594-1.853c-.088-.341.069-.957-.093-1.269-.291-.563-1.225-.79-1.184-1.422a2.814,2.814,0,0,1,.777-1.507,6.213,6.213,0,0,0,.578-1.285,2.648,2.648,0,0,0,.19-.9.923.923,0,0,0-.425-.867,14.171,14.171,0,0,0-2.574-1.452c-.122-.059-.264.173-.264.308s.158.241.174.375c.046.395-.193.8-.022,1.162.18.379.893.489.787.895a.649.649,0,0,1-.368.5.965.965,0,0,1-.458.083,9.339,9.339,0,0,0-1.469-.051,6.14,6.14,0,0,0-1.451.584,2.187,2.187,0,0,1-.985.354Zm4.338-6.157c0-.388-.014-.771-.013-1.153,0-.337.009-.675.035-1.016.017-.222.22-.391.246-.612.044-.365-.18-.8-.078-1.155.041-.143.4,0,.484-.119.027-.039.082-.268.173-.463.055-.117.169-.222.169-.267a8.179,8.179,0,0,1,.045-.931c.028-.233.064-.43.1-.432s.071.192.194.353c.142.185.19.369.315.564a.686.686,0,0,0,.274.3c.154.06.339-.024.493.038.115.046.143.227.246.3.07.049.23-.044.246.045.073.4.01.935.073,1.337.015.1.228.052.233.149q.049,1.049.046,2.1,0,.927-.05,1.854c-.009.176-.474.188-.6.09a1.953,1.953,0,0,0-.739-.493c-.137-.033-.13-.25-.26-.293a3.194,3.194,0,0,0-.953-.12,6.237,6.237,0,0,1-.676.045C358.982,377.8,359.019,377.728,359.018,377.688Zm9.352-12.057c0,.4.044.839.045,1.26,0,.542-.037,1.028-.035,1.575,0,.582.045,1.225.045,1.794,0,.463-.085,1.352-.049,1.737.046.494.073.58.749.58a1.947,1.947,0,0,0,1.1-.674c.224-.232.19-.633.276-.806a2.81,2.81,0,0,0,.387-.783c.058-.38-.081-.694.172-.937a5.845,5.845,0,0,0,.194-1.428,2.567,2.567,0,0,0-.773-1.3c-.283-.311-.622-.59-.767-.8a1.233,1.233,0,0,0-.777-.631C368.362,365.081,368.37,365.134,368.371,365.631Zm-3.027,21.431c-.107.423.218.6.6.844a14.334,14.334,0,0,1,1.248.917,7.355,7.355,0,0,1,1.652,2.683c.237-.252.07-1.428.2-2.133.028-.151.191-.26.207-.413a7.445,7.445,0,0,0,0-1.651c-.026-.2-.223-.353-.275-.551a1.074,1.074,0,0,1,0-.482c.038-.192.189-.355.206-.551a7.16,7.16,0,0,0,0-1.72c-.032-.214-.36-.335-.344-.551.014-.178.4-.165.413-.344a7.78,7.78,0,0,0-.2-1.514c-.143-1.144-.226-2.294-.344-3.44a4.679,4.679,0,0,1-.137-1.238c.215-.558.412-1.132.619-1.583.1-.133.235.127.337.258a3.89,3.89,0,0,1,.877,1.493c.118.656-.237,1.237-.162,1.9.022.193.32.159.389.341a14.992,14.992,0,0,1,.757,2.683,22.048,22.048,0,0,1,.275,3.165,4.367,4.367,0,0,1-.138,1.376c-.188.631-.58,1.133-.774,1.743-.2.637-.269.828.406.827a1.9,1.9,0,0,1,.785.113c.552.276.78.913,1.3,1.238.113.07.261.168.417.255.743.416.825.129.98-.522.2-.861.256-1.637.388-2.485a11.715,11.715,0,0,0,.072-1.307c.027-.62.073-1.238.041-1.858a1.322,1.322,0,0,0-.2-.825c-.143-.165-.563,0-.619-.207-.077-.288.338-.528.344-.826a18.342,18.342,0,0,1-.231-2.317c-.015-.935-.216-.464-.526-.831a1.145,1.145,0,0,1-.275-.705c-.087-.845.036-1.779-.093-2.618a2.1,2.1,0,0,0-.481-1.032c-.09-.1-.255.051-.317-.072-.1-.206.214-.347.093-.543a4.343,4.343,0,0,0-1.314-1.1c-.133-.089-.368.114-.482,0a.539.539,0,0,1,0-.578,2.383,2.383,0,0,0,1.589-.936,5.849,5.849,0,0,0,1.046-2.04c.122-.349-.034-.758.007-1.125A6.993,6.993,0,0,0,374,366.83a7.085,7.085,0,0,0-1.211-2.683,3.323,3.323,0,0,0-1.287-1.1c-.417-.2-.765-.032-1.208-.162-.512-.15-.923-.436-1.445-.543-.407-.083-.834.086-1.238-.007-.253-.058-.294-.342-.551-.382-.177-.027-.358.229-.536.244-1.234.1-2.247-.135-3.475.028-.183.024-.131.229.021.334.227.157.572.08.826.189a3.287,3.287,0,0,1,1.142.826,5.121,5.121,0,0,1,.646,1.1c.1.191.4-.176.62-.206.272-.039.461-.046.633.169.154.193-.165.449-.347.616a7.6,7.6,0,0,1-.945.737c-.223.153-.617.29-.783.588-.367.661.068,1.414.21,2.157.052.271.111.536.173.805.2.874.133,1.6.254,2.491.04.287.243.537.275.826.038.343-.024.595.028.936a4.313,4.313,0,0,0,.179.44,9.74,9.74,0,0,1,.344,2.071c.07,2.132-.056,4.22.051,6.351.01.194.3.271.341.461a1.916,1.916,0,0,1-.234.919c-.407,1.166-.885,2.038-1.136,3.031Z" transform="translate(-318.227 -361.551)" fill="#fff" fill-rule="evenodd"/>
</svg>
