<svg xmlns="http://www.w3.org/2000/svg" width="34.719" height="34.827" viewBox="0 0 34.719 34.827">
  <path id="Path_32" data-name="Path 32" d="M0,4.931,14.189,3l.006,13.686L.013,16.766ZM14.182,18.262l.011,13.7L.011,30.01V18.17ZM15.9,2.746,34.715,0V16.511L15.9,16.66ZM34.719,18.39l0,16.436L15.9,32.172,15.876,18.36Z" transform="translate(0 0)" fill="#fff"/>
</svg>
