<svg xmlns="http://www.w3.org/2000/svg" width="90.661" height="24.502" viewBox="0 0 90.661 24.502">
  <path id="Path_40" data-name="Path 40" d="M12.466,22.922c-1.364.239-2.752.311-4.187.5L3.9,10.6V23.975c-1.364.144-2.608.335-3.9.526V0H3.637L8.614,13.9V0h3.852V22.922ZM20,8.973c1.484,0,3.757-.072,5.121-.072v3.828c-1.7,0-3.685,0-5.121.072V18.5c2.249-.144,4.5-.335,6.771-.407v3.685l-10.6.838V0h10.6V3.828H20V8.973ZM41.012,3.828H37.04V21.439c-1.292,0-2.584,0-3.828.048V3.828H29.24V0H41.012ZM47.233,8.71h5.24v3.828h-5.24v8.686H43.476V0h10.7V3.828H47.233V8.71Zm13.16,9.164c2.177.048,4.379.215,6.508.335v3.781c-3.422-.215-6.843-.431-10.337-.5V0h3.828V17.874Zm9.738,4.379c1.22.072,2.512.144,3.757.287V0H70.131ZM90.661,0,85.8,11.653,90.661,24.5c-1.436-.191-2.871-.455-4.307-.694L83.6,16.725l-2.8,6.508c-1.388-.239-2.728-.311-4.116-.5l4.929-11.222L77.166,0h4.115l2.512,6.437L86.474,0h4.187Z" transform="translate(0 0)" fill="#fff"/>
</svg>
