<svg xmlns="http://www.w3.org/2000/svg" width="29" height="29" viewBox="0 0 29 29">
  <g id="Group_27" data-name="Group 27" transform="translate(169 331) rotate(180)">
    <circle id="Ellipse_15" data-name="Ellipse 15" cx="14.5" cy="14.5" r="14.5" transform="translate(140 302)" fill="#fff"/>
    <g id="Group_25" data-name="Group 25" transform="translate(89.35 307)">
      <g id="keyboard-arrow-left" transform="translate(58.65)">
        <path id="Path_27" data-name="Path 27" d="M70.023,16.291l-7.07-7.07,7.07-7.07L67.871,0,58.65,9.221l9.221,9.221Z" transform="translate(-58.65)" fill="#1998ff"/>
      </g>
    </g>
  </g>
</svg>
