<svg xmlns="http://www.w3.org/2000/svg" width="40.531" height="45.969" viewBox="0 0 40.531 45.969">
  <g id="surface1" transform="translate(-5 -2)">
    <path id="Path_28" data-name="Path 28" d="M7.125,2,28.781,23.5l5.938-5.937L8.469,2.406A2.873,2.873,0,0,0,7.125,2ZM5.313,3A2.466,2.466,0,0,0,5,4.219V46a2.248,2.248,0,0,0,.188.906l22.156-22ZM36.531,18.594l-6.344,6.313,6.344,6.281,7.75-4.437a1.971,1.971,0,0,0,.031-3.656C43.652,22.738,38.75,19.883,36.531,18.594Zm-7.75,7.719L6.938,47.969a2.46,2.46,0,0,0,1.125-.312c.855-.5,18.156-10.5,18.156-10.5L34.75,32.25Z" fill="#fff"/>
  </g>
</svg>
