<svg xmlns="http://www.w3.org/2000/svg" width="20.835" height="20.835" viewBox="0 0 20.835 20.835">
  <g id="Group_15" data-name="Group 15" transform="translate(0)">
    <g id="Group_14" data-name="Group 14" transform="translate(0)">
      <path id="Path_21" data-name="Path 21" d="M17.784,13.469a10.377,10.377,0,0,0-3.959-2.483,6.023,6.023,0,1,0-6.815,0A10.434,10.434,0,0,0,0,20.835H1.628a8.79,8.79,0,1,1,17.579,0h1.628A10.35,10.35,0,0,0,17.784,13.469Zm-7.366-3.051a4.395,4.395,0,1,1,4.395-4.395A4.4,4.4,0,0,1,10.417,10.417Z" transform="translate(0)" fill="#1998ff"/>
    </g>
  </g>
</svg>
