

{"code":"ECONNREFUSED","errno":-4078}09,"sqlMessage":"Unknown table 'bank_number_not_verifyed' in field list","devData":{"queryFunction":"getGuestBankNumbers","date":"2020-09-18T16:26:16.350Z"}}

{"code":"ER_BAD_NULL_ERROR","errno":1048,"sqlMessage":"Column 'bank_number' cannot be null","devData":{"queryFunction":"insert2vPromise","table":"c2c","params":{"cat_id":"28","amount":"2223","user_id":26},"date":"2020-09-19T00:12:47.050Z"}}

{"code":"ER_BAD_FIELD_ERROR","errno":1054,"sqlMessage":"Unknown column 'phone' in 'field list'","devData":{"queryFunction":"insert2vPromise","table":"phone_code","params":{"phone":"456456456","guest_id":419},"date":"2020-09-21T14:32:46.253Z"}}

{"code":"ER_BAD_NULL_ERROR","errno":1048,"sqlMessage":"Column 'bank_number_verifyed_id' cannot be null","devData":{"queryFunction":"insert2vPromise","table":"bank_number_user_show","params":{"user_id":41},"date":"2020-09-21T16:29:20.352Z"}}

{"code":"ER_BAD_NULL_ERROR","errno":1048,"sqlMessage":"Column 'bank_number_verifyed_id' cannot be null","devData":{"queryFunction":"insert2vPromise","table":"bank_number_user_show","params":{"user_id":42},"date":"2020-09-21T16:30:21.413Z"}}

{"code":"ER_BAD_NULL_ERROR","errno":1048,"sqlMessage":"Column 'bank_number_verifyed_id' cannot be null","devData":{"queryFunction":"insert2vPromise","table":"bank_number_user_show","params":{"user_id":43},"date":"2020-09-21T16:32:14.131Z"}}


{"code":"ER_ACCESS_DENIED_ERROR","errno":1045,"sqlMessage":"Access denied for user 'narekir'@'localhost' (using password: YES)","devData":{"queryFunction":"findByMultyName2v","table":"guest","params":{"token":"b1b71e6a983513f0b5561b417f27fa4898561440"},"filds":["id"],"date":"2020-10-09T19:24:04.157Z"}}

{"code":"ER_ACCESS_DENIED_ERROR","errno":1045,"sqlMessage":"Access denied for user 'narekir'@'localhost' (using password: YES)","devData":{"queryFunction":"findByMultyName2v","table":"guest","params":{"token":"ff00fac5d3efc684bba3a3342d3bda5bb9f3ab75"},"filds":["id"],"date":"2020-10-09T19:24:04.162Z"}}

{"code":"ER_ACCESS_DENIED_ERROR","errno":1045,"sqlMessage":"Access denied for user 'narekir'@'localhost' (using password: YES)"}

{"code":"ER_ACCESS_DENIED_ERROR","errno":1045,"sqlMessage":"Access denied for user 'narekir'@'localhost' (using password: YES)","devData":{"queryFunction":"findAllCategories","date":"2020-10-09T19:24:04.177Z"}}

{"code":"ER_WRONG_VALUE_COUNT_ON_ROW","errno":1136,"sqlMessage":"Column count doesn't match value count at row 1","devData":{"queryFunction":"insertLoopPromise","table":"order_products","filds":["order_id","product_id","voucher_code"],"params":[[145,34,null,"00"]],"date":"2020-10-09T19:32:43.729Z"}}

{"code":"ER_WRONG_VALUE_COUNT_ON_ROW","errno":1136,"sqlMessage":"Column count doesn't match value count at row 1","devData":{"queryFunction":"insertLoopPromise","table":"order_products","filds":["order_id","product_id","voucher_code"],"params":[[146,27,null,"00"],[146,34,null,"10"]],"date":"2020-10-09T19:35:33.001Z"}}

{"code":"ECONNREFUSED","errno":-4078,"devData":{"queryFunction":"findByMultyName2v","table":"guest","params":{"token":"ccf03c9ebf3ba62332d6a6c5814f5693b60ecf34"},"filds":["id"],"date":"2021-04-17T17:27:45.965Z"}}

{"code":"ECONNREFUSED","errno":-4078,"devData":{"queryFunction":"findAllCategories","date":"2021-04-17T17:27:45.997Z"}}

{"code":"ECONNREFUSED","errno":-4078,"devData":{"queryFunction":"findByMultyName2v","table":"guest","params":{"token":"8e97dd9c4aa80acecc1ee14503c9c702c7c92fb3"},"filds":["id"],"date":"2021-04-17T17:27:46.379Z"}}

{"code":"ECONNREFUSED","errno":-4078,"devData":{"queryFunction":"findAllCategories","date":"2021-04-17T17:27:46.389Z"}}

{"code":"ER_ACCESS_DENIED_ERROR","errno":1045,"sqlMessage":"Access denied for user 'narekir'@'localhost' (using password: YES)","devData":{"queryFunction":"findByMultyName2v","table":"guest","params":{"token":"f4a461146996505456bc99b724d8f24d8523705f"},"filds":["id"],"date":"2021-05-01T12:49:10.292Z"}}

{"code":"ER_ACCESS_DENIED_ERROR","errno":1045,"sqlMessage":"Access denied for user 'narekir'@'localhost' (using password: YES)"}

{"code":"ER_ACCESS_DENIED_ERROR","errno":1045,"sqlMessage":"Access denied for user 'narekir'@'localhost' (using password: YES)","devData":{"queryFunction":"findAllCategories","date":"2021-05-01T12:49:10.308Z"}}

{"code":"ER_ACCESS_DENIED_ERROR","errno":1045,"sqlMessage":"Access denied for user 'narekir'@'localhost' (using password: YES)","devData":{"queryFunction":"findByMultyName2v","table":"guest","params":{"token":"f4a461146996505456bc99b724d8f24d8523705f"},"filds":["id"],"date":"2021-05-01T12:49:10.569Z"}}

{"code":"ER_ACCESS_DENIED_ERROR","errno":1045,"sqlMessage":"Access denied for user 'narekir'@'localhost' (using password: YES)","devData":{"queryFunction":"findByMultyName2v","table":"guest","params":{"token":"e568fd3d482cbc60b673b869198e3e901c7d14cd"},"filds":["id"],"date":"2021-05-01T12:49:10.575Z"}}

{"code":"ER_ACCESS_DENIED_ERROR","errno":1045,"sqlMessage":"Access denied for user 'narekir'@'localhost' (using password: YES)"}

{"code":"ER_ACCESS_DENIED_ERROR","errno":1045,"sqlMessage":"Access denied for user 'narekir'@'localhost' (using password: YES)","devData":{"queryFunction":"findAllCategories","date":"2021-05-01T12:49:10.591Z"}}

{"code":"ER_ACCESS_DENIED_ERROR","errno":1045,"sqlMessage":"Access denied for user 'narekir'@'localhost' (using password: YES)","devData":{"queryFunction":"findByMultyName2v","table":"guest","params":{"token":"f4a461146996505456bc99b724d8f24d8523705f"},"filds":["id"],"date":"2021-05-01T12:49:13.852Z"}}

{"code":"ER_ACCESS_DENIED_ERROR","errno":1045,"sqlMessage":"Access denied for user 'narekir'@'localhost' (using password: YES)","devData":{"queryFunction":"findByMultyName2v","table":"guest","params":{"token":"6b513283882f943687727d29fd05723fe36d3dd2"},"filds":["id"],"date":"2021-05-01T12:49:13.856Z"}}

{"code":"ER_ACCESS_DENIED_ERROR","errno":1045,"sqlMessage":"Access denied for user 'narekir'@'localhost' (using password: YES)"}

{"code":"ER_ACCESS_DENIED_ERROR","errno":1045,"sqlMessage":"Access denied for user 'narekir'@'localhost' (using password: YES)","devData":{"queryFunction":"findAllCategories","date":"2021-05-01T12:49:13.872Z"}}

{"code":"ER_ACCESS_DENIED_ERROR","errno":1045,"sqlMessage":"Access denied for user 'narekir'@'localhost' (using password: YES)","devData":{"queryFunction":"findByMultyName2v","table":"guest","params":{"token":"f4a461146996505456bc99b724d8f24d8523705f"},"filds":["id"],"date":"2021-05-01T12:49:14.640Z"}}

{"code":"ER_ACCESS_DENIED_ERROR","errno":1045,"sqlMessage":"Access denied for user 'narekir'@'localhost' (using password: YES)","devData":{"queryFunction":"findByMultyName2v","table":"guest","params":{"token":"3d44ebb099cc3e81c07e844d0efc4a4cebcd98da"},"filds":["id"],"date":"2021-05-01T12:49:14.645Z"}}

{"code":"ER_ACCESS_DENIED_ERROR","errno":1045,"sqlMessage":"Access denied for user 'narekir'@'localhost' (using password: YES)"}

{"code":"ER_ACCESS_DENIED_ERROR","errno":1045,"sqlMessage":"Access denied for user 'narekir'@'localhost' (using password: YES)","devData":{"queryFunction":"findAllCategories","date":"2021-05-01T12:49:14.657Z"}}

{"code":"ER_ACCESS_DENIED_ERROR","errno":1045,"sqlMessage":"Access denied for user 'narekir'@'localhost' (using password: YES)","devData":{"queryFunction":"findByMultyName2v","table":"guest","params":{"token":"f4a461146996505456bc99b724d8f24d8523705f"},"filds":["id"],"date":"2021-05-01T12:49:15.067Z"}}

{"code":"ER_ACCESS_DENIED_ERROR","errno":1045,"sqlMessage":"Access denied for user 'narekir'@'localhost' (using password: YES)","devData":{"queryFunction":"findByMultyName2v","table":"guest","params":{"token":"b66f2eba9e831c62a4458e1950b0881ce2b71519"},"filds":["id"],"date":"2021-05-01T12:49:15.071Z"}}

{"code":"ER_ACCESS_DENIED_ERROR","errno":1045,"sqlMessage":"Access denied for user 'narekir'@'localhost' (using password: YES)"}

{"code":"ER_ACCESS_DENIED_ERROR","errno":1045,"sqlMessage":"Access denied for user 'narekir'@'localhost' (using password: YES)","devData":{"queryFunction":"findAllCategories","date":"2021-05-01T12:49:15.082Z"}}

{"code":"ER_ACCESS_DENIED_ERROR","errno":1045,"sqlMessage":"Access denied for user 'narekir'@'localhost' (using password: YES)","devData":{"queryFunction":"findByMultyName2v","table":"guest","params":{"token":"f4a461146996505456bc99b724d8f24d8523705f"},"filds":["id"],"date":"2021-05-01T12:49:15.259Z"}}

{"code":"ER_ACCESS_DENIED_ERROR","errno":1045,"sqlMessage":"Access denied for user 'narekir'@'localhost' (using password: YES)","devData":{"queryFunction":"findByMultyName2v","table":"guest","params":{"token":"a5c37a15f49645246de83a1a7d6433c95155fee2"},"filds":["id"],"date":"2021-05-01T12:49:15.263Z"}}

{"code":"ER_ACCESS_DENIED_ERROR","errno":1045,"sqlMessage":"Access denied for user 'narekir'@'localhost' (using password: YES)"}

{"code":"ER_ACCESS_DENIED_ERROR","errno":1045,"sqlMessage":"Access denied for user 'narekir'@'localhost' (using password: YES)","devData":{"queryFunction":"findAllCategories","date":"2021-05-01T12:49:15.278Z"}}

{"code":"ER_ACCESS_DENIED_ERROR","errno":1045,"sqlMessage":"Access denied for user 'narekir'@'localhost' (using password: YES)","devData":{"queryFunction":"findByMultyName2v","table":"guest","params":{"token":"f4a461146996505456bc99b724d8f24d8523705f"},"filds":["id"],"date":"2021-05-01T12:49:15.438Z"}}

{"code":"ER_ACCESS_DENIED_ERROR","errno":1045,"sqlMessage":"Access denied for user 'narekir'@'localhost' (using password: YES)","devData":{"queryFunction":"findByMultyName2v","table":"guest","params":{"token":"22d366ca9637952645714caaa2756cc175aec303"},"filds":["id"],"date":"2021-05-01T12:49:15.443Z"}}

{"code":"ER_ACCESS_DENIED_ERROR","errno":1045,"sqlMessage":"Access denied for user 'narekir'@'localhost' (using password: YES)"}

{"code":"ER_ACCESS_DENIED_ERROR","errno":1045,"sqlMessage":"Access denied for user 'narekir'@'localhost' (using password: YES)","devData":{"queryFunction":"findAllCategories","date":"2021-05-01T12:49:15.455Z"}}

{"code":"ER_ACCESS_DENIED_ERROR","errno":1045,"sqlMessage":"Access denied for user 'narekir'@'localhost' (using password: YES)","devData":{"queryFunction":"findByMultyName2v","table":"guest","params":{"token":"f4a461146996505456bc99b724d8f24d8523705f"},"filds":["id"],"date":"2021-05-01T12:49:53.214Z"}}

{"code":"ER_ACCESS_DENIED_ERROR","errno":1045,"sqlMessage":"Access denied for user 'narekir'@'localhost' (using password: YES)","devData":{"queryFunction":"findByMultyName2v","table":"guest","params":{"token":"c1f68ee89d227909c20cb91e922ee0c8df703201"},"filds":["id"],"date":"2021-05-01T12:49:53.218Z"}}

{"code":"ER_ACCESS_DENIED_ERROR","errno":1045,"sqlMessage":"Access denied for user 'narekir'@'localhost' (using password: YES)"}

{"code":"ER_ACCESS_DENIED_ERROR","errno":1045,"sqlMessage":"Access denied for user 'narekir'@'localhost' (using password: YES)","devData":{"queryFunction":"findAllCategories","date":"2021-05-01T12:49:53.233Z"}}